Relatório - Datathon de 12/01/2019
…
Bolsas por cidade

da %>% 
  gather(tipo_bolsa, bolsa, starts_with("bolsa_")) %>% 
  group_by(cidade_busca) %>% 
  summarise(bolsas = sum(bolsa, na.rm = TRUE)) %>% 
  arrange(desc(bolsas))

## # A tibble: 1,158 x 2
##    cidade_busca   bolsas
##    <chr>           <dbl>
##  1 Sao Paulo       24420
##  2 Brasilia        11139
##  3 Curitiba         8996
##  4 Sao Luis         7202
##  5 Belo Horizonte   7048
##  6 Fortaleza        6861
##  7 Recife           6696
##  8 Salvador         6427
##  9 Campinas         5732
## 10 Goiania          5649
## # … with 1,148 more rows
…
